file_name;key_repr
xortool_out/000.out;\x1a\x1c\n\x0e\x01\x00\x01\x16\x02\x06\x15\n\x1d\x1c\x06\x1c\x1d\x06\x08\x07\x1b"\x0e\x16
xortool_out/001.out;\x1a\x1c\n\x0e\x01\x00\x01\x16\x02\x06\x15\n\x1d\x1c\x06\x1c\x1d\x06\x08\x07\x1b\x18\x0e\x16
xortool_out/002.out;\x1b\x1d\x0b\x0f\x00\x01\x00\x17\x03\x07\x14\x0b\x1c\x1d\x07\x1d\x1c\x07\t\x06\x1a#\x0f\x17
xortool_out/003.out;\x1b\x1d\x0b\x0f\x00\x01\x00\x17\x03\x07\x14\x0b\x1c\x1d\x07\x1d\x1c\x07\t\x06\x1a\x19\x0f\x17
xortool_out/004.out;\x18\x1e\x08\x0c\x03\x02\x03\x14\x00\x04\x17\x08\x1f\x1e\x04\x1e\x1f\x04\n\x05\x19 \x0c\x14
xortool_out/005.out;\x18\x1e\x08\x0c\x03\x02\x03\x14\x00\x04\x17\x08\x1f\x1e\x04\x1e\x1f\x04\n\x05\x19\x1a\x0c\x14
xortool_out/006.out;\x19\x1f\t\r\x02\x03\x02\x15\x01\x05\x16\t\x1e\x1f\x05\x1f\x1e\x05\x0b\x04\x18!\r\x15
xortool_out/007.out;\x19\x1f\t\r\x02\x03\x02\x15\x01\x05\x16\t\x1e\x1f\x05\x1f\x1e\x05\x0b\x04\x18\x1b\r\x15
xortool_out/008.out;\x1e\x18\x0e\n\x05\x04\x05\x12\x06\x02\x11\x0e\x19\x18\x02\x18\x19\x02\x0c\x03\x1f&\n\x12
xortool_out/009.out;\x1e\x18\x0e\n\x05\x04\x05\x12\x06\x02\x11\x0e\x19\x18\x02\x18\x19\x02\x0c\x03\x1f\x1c\n\x12
xortool_out/010.out;\x1f\x19\x0f\x0b\x04\x05\x04\x13\x07\x03\x10\x0f\x18\x19\x03\x19\x18\x03\r\x02\x1e'\x0b\x13
xortool_out/011.out;\x1f\x19\x0f\x0b\x04\x05\x04\x13\x07\x03\x10\x0f\x18\x19\x03\x19\x18\x03\r\x02\x1e\x1d\x0b\x13
xortool_out/012.out;\x1c\x1a\x0c\x08\x07\x06\x07\x10\x04\x00\x13\x0c\x1b\x1a\x00\x1a\x1b\x00\x0e\x01\x1d$\x08\x10
xortool_out/013.out;\x1c\x1a\x0c\x08\x07\x06\x07\x10\x04\x00\x13\x0c\x1b\x1a\x00\x1a\x1b\x00\x0e\x01\x1d\x1e\x08\x10
xortool_out/014.out;\x1d\x1b\r\t\x06\x07\x06\x11\x05\x01\x12\r\x1a\x1b\x01\x1b\x1a\x01\x0f\x00\x1c%\t\x11
xortool_out/015.out;\x1d\x1b\r\t\x06\x07\x06\x11\x05\x01\x12\r\x1a\x1b\x01\x1b\x1a\x01\x0f\x00\x1c\x1f\t\x11
xortool_out/016.out;\x12\x14\x02\x06\t\x08\t\x1e\n\x0e\x1d\x02\x15\x14\x0e\x14\x15\x0e\x00\x0f\x13*\x06\x1e
xortool_out/017.out;\x12\x14\x02\x06\t\x08\t\x1e\n\x0e\x1d\x02\x15\x14\x0e\x14\x15\x0e\x00\x0f\x13\x10\x06\x1e
xortool_out/018.out;\x13\x15\x03\x07\x08\t\x08\x1f\x0b\x0f\x1c\x03\x14\x15\x0f\x15\x14\x0f\x01\x0e\x12+\x07\x1f
xortool_out/019.out;\x13\x15\x03\x07\x08\t\x08\x1f\x0b\x0f\x1c\x03\x14\x15\x0f\x15\x14\x0f\x01\x0e\x12\x11\x07\x1f
xortool_out/020.out;KM[_PQPGSWD[LMWMLWYVJs_G
xortool_out/021.out;KM[_PQPGSWD[LMWMLWYVJI_G
xortool_out/022.out;HNX\\SRSDPTGXONTNOTZUIp\\D
xortool_out/023.out;HNX\\SRSDPTGXONTNOTZUIJ\\D
xortool_out/024.out;IOY]RSREQUFYNOUONU[THq]E
xortool_out/025.out;IOY]RSREQUFYNOUONU[THK]E
xortool_out/026.out;NH^ZUTUBVRA^IHRHIR\\SOvZB
xortool_out/027.out;NH^ZUTUBVRA^IHRHIR\\SOLZB
xortool_out/028.out;OI_[TUTCWS@_HISIHS]RNw[C
xortool_out/029.out;OI_[TUTCWS@_HISIHS]RNM[C
xortool_out/030.out;LJ\\XWVW@TPC\\KJPJKP^QMtX@
xortool_out/031.out;LJ\\XWVW@TPC\\KJPJKP^QMNX@
xortool_out/032.out;MK]YVWVAUQB]JKQKJQ_PLuYA
xortool_out/033.out;MK]YVWVAUQB]JKQKJQ_PLOYA
xortool_out/034.out;BDRVYXYNZ^MRED^DE^P_CzVN
xortool_out/035.out;BDRVYXYNZ^MRED^DE^P_C@VN
xortool_out/036.out;CESWXYXO[_LSDE_ED_Q^B{WO
xortool_out/037.out;CESWXYXO[_LSDE_ED_Q^BAWO
xortool_out/038.out;@FPT[Z[LX\\OPGF\\FG\\R]AxTL
xortool_out/039.out;@FPT[Z[LX\\OPGF\\FG\\R]ABTL
xortool_out/040.out;AGQUZ[ZMY]NQFG]GF]S\\@yUM
xortool_out/041.out;AGQUZ[ZMY]NQFG]GF]S\\@CUM
xortool_out/042.out;F@VR]\\]J^ZIVA@Z@AZT[G~RJ
xortool_out/043.out;F@VR]\\]J^ZIVA@Z@AZT[GDRJ
xortool_out/044.out;GAWS\\]\\K_[HW@A[A@[UZF\x7fSK
xortool_out/045.out;GAWS\\]\\K_[HW@A[A@[UZFESK
xortool_out/046.out;DBTP_^_H\\XKTCBXBCXVYE|PH
xortool_out/047.out;DBTP_^_H\\XKTCBXBCXVYEFPH
xortool_out/048.out;ECUQ^_^I]YJUBCYCBYWXD}QI
xortool_out/049.out;ECUQ^_^I]YJUBCYCBYWXDGQI
xortool_out/050.out;Z\\JNA@AVBFUJ]\\F\\]FHG[bNV
xortool_out/051.out;Z\\JNA@AVBFUJ]\\F\\]FHG[XNV
xortool_out/052.out;[]KO@A@WCGTK\\]G]\\GIFZcOW
xortool_out/053.out;[]KO@A@WCGTK\\]G]\\GIFZYOW
xortool_out/054.out;X^HLCBCT@DWH_^D^_DJEY`LT
xortool_out/055.out;X^HLCBCT@DWH_^D^_DJEYZLT
xortool_out/056.out;Y_IMBCBUAEVI^_E_^EKDXaMU
xortool_out/057.out;Y_IMBCBUAEVI^_E_^EKDX[MU
xortool_out/058.out;^XNJEDERFBQNYXBXYBLC_fJR
xortool_out/059.out;^XNJEDERFBQNYXBXYBLC_\\JR
xortool_out/060.out;_YOKDEDSGCPOXYCYXCMB^gKS
xortool_out/061.out;_YOKDEDSGCPOXYCYXCMB^]KS
xortool_out/062.out;\\ZLHGFGPD@SL[Z@Z[@NA]dHP
xortool_out/063.out;\\ZLHGFGPD@SL[Z@Z[@NA]^HP
xortool_out/064.out;][MIFGFQEARMZ[A[ZAO@\\eIQ
xortool_out/065.out;][MIFGFQEARMZ[A[ZAO@\\_IQ
xortool_out/066.out;RTBFIHI^JN]BUTNTUN@OSjF^
xortool_out/067.out;RTBFIHI^JN]BUTNTUN@OSPF^
xortool_out/068.out;SUCGHIH_KO\\CTUOUTOANRkG_
xortool_out/069.out;SUCGHIH_KO\\CTUOUTOANRQG_
xortool_out/070.out;PV@DKJK\\HL_@WVLVWLBMQhD\\
xortool_out/071.out;PV@DKJK\\HL_@WVLVWLBMQRD\\
xortool_out/072.out;km{\x7fpqpgswd{lmwmlwyvjS\x7fg
xortool_out/073.out;km{\x7fpqpgswd{lmwmlwyvji\x7fg
xortool_out/074.out;hnx|srsdptgxontnotzuiP|d
xortool_out/075.out;hnx|srsdptgxontnotzuij|d
xortool_out/076.out;ioy}rsrequfynouonu{thQ}e
xortool_out/077.out;ioy}rsrequfynouonu{thk}e
xortool_out/078.out;nh~zutubvra~ihrhir|soVzb
xortool_out/079.out;nh~zutubvra~ihrhir|solzb
xortool_out/080.out;oi\x7f{tutcws`\x7fhisihs}rnW{c
xortool_out/081.out;oi\x7f{tutcws`\x7fhisihs}rnm{c
xortool_out/082.out;lj|xwvw`tpc|kjpjkp~qmTx`
xortool_out/083.out;lj|xwvw`tpc|kjpjkp~qmnx`
xortool_out/084.out;mk}yvwvauqb}jkqkjq\x7fplUya
xortool_out/085.out;mk}yvwvauqb}jkqkjq\x7fploya
xortool_out/086.out;bdrvyxynz~mred~de~p\x7fcZvn
xortool_out/087.out;bdrvyxynz~mred~de~p\x7fc`vn
xortool_out/088.out;ceswxyxo{\x7flsde\x7fed\x7fq~b[wo
xortool_out/089.out;ceswxyxo{\x7flsde\x7fed\x7fq~bawo
xortool_out/090.out;`fpt{z{lx|opgf|fg|r}aXtl
xortool_out/091.out;`fpt{z{lx|opgf|fg|r}abtl
xortool_out/092.out;agquz{zmy}nqfg}gf}s|`Yum
xortool_out/093.out;agquz{zmy}nqfg}gf}s|`cum
xortool_out/094.out;f`vr}|}j~ziva`z`azt{g^rj
xortool_out/095.out;f`vr}|}j~ziva`z`azt{gdrj
xortool_out/096.out;gaws|}|k\x7f{hw`a{a`{uzf_sk
xortool_out/097.out;gaws|}|k\x7f{hw`a{a`{uzfesk
xortool_out/098.out;dbtp\x7f~\x7fh|xktcbxbcxvye\\ph
xortool_out/099.out;dbtp\x7f~\x7fh|xktcbxbcxvyefph
xortool_out/100.out;ecuq~\x7f~i}yjubcycbywxd]qi
xortool_out/101.out;ecuq~\x7f~i}yjubcycbywxdgqi
xortool_out/102.out;z|jna`avbfuj}|f|}fhg{Bnv
xortool_out/103.out;z|jna`avbfuj}|f|}fhg{xnv
xortool_out/104.out;{}ko`a`wcgtk|}g}|gifzCow
xortool_out/105.out;{}ko`a`wcgtk|}g}|gifzyow
xortool_out/106.out;x~hlcbct`dwh\x7f~d~\x7fdjey@lt
xortool_out/107.out;x~hlcbct`dwh\x7f~d~\x7fdjeyzlt
xortool_out/108.out;y\x7fimbcbuaevi~\x7fe\x7f~ekdxAmu
xortool_out/109.out;y\x7fimbcbuaevi~\x7fe\x7f~ekdx{mu
xortool_out/110.out;~xnjederfbqnyxbxyblc\x7fFjr
xortool_out/111.out;~xnjederfbqnyxbxyblc\x7f|jr
xortool_out/112.out;\x7fyokdedsgcpoxycyxcmb~Gks
xortool_out/113.out;\x7fyokdedsgcpoxycyxcmb~}ks
xortool_out/114.out;|zlhgfgpd`sl{z`z{`na}Dhp
xortool_out/115.out;|zlhgfgpd`sl{z`z{`na}~hp
xortool_out/116.out;}{mifgfqearmz{a{zao`|Eiq
xortool_out/117.out;}{mifgfqearmz{a{zao`|\x7fiq
xortool_out/118.out;rtbfihi~jn}butntun`osJf~
xortool_out/119.out;rtbfihi~jn}butntun`ospf~
xortool_out/120.out;sucghih\x7fko|ctuoutoanrKg\x7f
xortool_out/121.out;sucghih\x7fko|ctuoutoanrqg\x7f
xortool_out/122.out;pv`dkjk|hl\x7f`wvlvwlbmqHd|
xortool_out/123.out;pv`dkjk|hl\x7f`wvlvwlbmqrd|
xortool_out/124.out;\x0b\r\x1b\x1f\x10\x11\x10\x07\x13\x17\x04\x1b\x0c\r\x17\r\x0c\x17\x19\x16\n3\x1f\x07
xortool_out/125.out;\x0b\r\x1b\x1f\x10\x11\x10\x07\x13\x17\x04\x1b\x0c\r\x17\r\x0c\x17\x19\x16\n\t\x1f\x07
xortool_out/126.out;\x08\x0e\x18\x1c\x13\x12\x13\x04\x10\x14\x07\x18\x0f\x0e\x14\x0e\x0f\x14\x1a\x15\t0\x1c\x04
xortool_out/127.out;\x08\x0e\x18\x1c\x13\x12\x13\x04\x10\x14\x07\x18\x0f\x0e\x14\x0e\x0f\x14\x1a\x15\t\n\x1c\x04
xortool_out/128.out;\t\x0f\x19\x1d\x12\x13\x12\x05\x11\x15\x06\x19\x0e\x0f\x15\x0f\x0e\x15\x1b\x14\x081\x1d\x05
xortool_out/129.out;\t\x0f\x19\x1d\x12\x13\x12\x05\x11\x15\x06\x19\x0e\x0f\x15\x0f\x0e\x15\x1b\x14\x08\x0b\x1d\x05
xortool_out/130.out;\x0e\x08\x1e\x1a\x15\x14\x15\x02\x16\x12\x01\x1e\t\x08\x12\x08\t\x12\x1c\x13\x0f6\x1a\x02
xortool_out/131.out;\x0e\x08\x1e\x1a\x15\x14\x15\x02\x16\x12\x01\x1e\t\x08\x12\x08\t\x12\x1c\x13\x0f\x0c\x1a\x02
xortool_out/132.out;\x0f\t\x1f\x1b\x14\x15\x14\x03\x17\x13\x00\x1f\x08\t\x13\t\x08\x13\x1d\x12\x0e7\x1b\x03
xortool_out/133.out;\x0f\t\x1f\x1b\x14\x15\x14\x03\x17\x13\x00\x1f\x08\t\x13\t\x08\x13\x1d\x12\x0e\r\x1b\x03
xortool_out/134.out;\x0c\n\x1c\x18\x17\x16\x17\x00\x14\x10\x03\x1c\x0b\n\x10\n\x0b\x10\x1e\x11\r4\x18\x00
xortool_out/135.out;\x0c\n\x1c\x18\x17\x16\x17\x00\x14\x10\x03\x1c\x0b\n\x10\n\x0b\x10\x1e\x11\r\x0e\x18\x00
xortool_out/136.out;\r\x0b\x1d\x19\x16\x17\x16\x01\x15\x11\x02\x1d\n\x0b\x11\x0b\n\x11\x1f\x10\x0c5\x19\x01
xortool_out/137.out;\r\x0b\x1d\x19\x16\x17\x16\x01\x15\x11\x02\x1d\n\x0b\x11\x0b\n\x11\x1f\x10\x0c\x0f\x19\x01
xortool_out/138.out;\x02\x04\x12\x16\x19\x18\x19\x0e\x1a\x1e\r\x12\x05\x04\x1e\x04\x05\x1e\x10\x1f\x03:\x16\x0e
xortool_out/139.out;\x02\x04\x12\x16\x19\x18\x19\x0e\x1a\x1e\r\x12\x05\x04\x1e\x04\x05\x1e\x10\x1f\x03\x00\x16\x0e
xortool_out/140.out;\x03\x05\x13\x17\x18\x19\x18\x0f\x1b\x1f\x0c\x13\x04\x05\x1f\x05\x04\x1f\x11\x1e\x02;\x17\x0f
xortool_out/141.out;\x03\x05\x13\x17\x18\x19\x18\x0f\x1b\x1f\x0c\x13\x04\x05\x1f\x05\x04\x1f\x11\x1e\x02\x01\x17\x0f
xortool_out/142.out;\x00\x06\x10\x14\x1b\x1a\x1b\x0c\x18\x1c\x0f\x10\x07\x06\x1c\x06\x07\x1c\x12\x1d\x018\x14\x0c
xortool_out/143.out;\x00\x06\x10\x14\x1b\x1a\x1b\x0c\x18\x1c\x0f\x10\x07\x06\x1c\x06\x07\x1c\x12\x1d\x01\x02\x14\x0c
xortool_out/144.out;\x01\x07\x11\x15\x1a\x1b\x1a\r\x19\x1d\x0e\x11\x06\x07\x1d\x07\x06\x1d\x13\x1c\x009\x15\r
xortool_out/145.out;\x01\x07\x11\x15\x1a\x1b\x1a\r\x19\x1d\x0e\x11\x06\x07\x1d\x07\x06\x1d\x13\x1c\x00\x03\x15\r
xortool_out/146.out;\x06\x00\x16\x12\x1d\x1c\x1d\n\x1e\x1a\t\x16\x01\x00\x1a\x00\x01\x1a\x14\x1b\x07>\x12\n
xortool_out/147.out;\x06\x00\x16\x12\x1d\x1c\x1d\n\x1e\x1a\t\x16\x01\x00\x1a\x00\x01\x1a\x14\x1b\x07\x04\x12\n
xortool_out/148.out;\x07\x01\x17\x13\x1c\x1d\x1c\x0b\x1f\x1b\x08\x17\x00\x01\x1b\x01\x00\x1b\x15\x1a\x06?\x13\x0b
xortool_out/149.out;\x07\x01\x17\x13\x1c\x1d\x1c\x0b\x1f\x1b\x08\x17\x00\x01\x1b\x01\x00\x1b\x15\x1a\x06\x05\x13\x0b
xortool_out/150.out;\x04\x02\x14\x10\x1f\x1e\x1f\x08\x1c\x18\x0b\x14\x03\x02\x18\x02\x03\x18\x16\x19\x05<\x10\x08
xortool_out/151.out;\x04\x02\x14\x10\x1f\x1e\x1f\x08\x1c\x18\x0b\x14\x03\x02\x18\x02\x03\x18\x16\x19\x05\x06\x10\x08
xortool_out/152.out;\x05\x03\x15\x11\x1e\x1f\x1e\t\x1d\x19\n\x15\x02\x03\x19\x03\x02\x19\x17\x18\x04=\x11\t
xortool_out/153.out;\x05\x03\x15\x11\x1e\x1f\x1e\t\x1d\x19\n\x15\x02\x03\x19\x03\x02\x19\x17\x18\x04\x07\x11\t
xortool_out/154.out;\x10\x16\x00\x04\x0b\n\x0b\x1c\x08\x0c\x1f\x00\x17\x16\x0c\x16\x17\x0c\x02\r\x11(\x04\x1c
xortool_out/155.out;\x10\x16\x00\x04\x0b\n\x0b\x1c\x08\x0c\x1f\x00\x17\x16\x0c\x16\x17\x0c\x02\r\x11\x12\x04\x1c
xortool_out/156.out;\x11\x17\x01\x05\n\x0b\n\x1d\t\r\x1e\x01\x16\x17\r\x17\x16\r\x03\x0c\x10)\x05\x1d
xortool_out/157.out;\x11\x17\x01\x05\n\x0b\n\x1d\t\r\x1e\x01\x16\x17\r\x17\x16\r\x03\x0c\x10\x13\x05\x1d
xortool_out/158.out;\x16\x10\x06\x02\r\x0c\r\x1a\x0e\n\x19\x06\x11\x10\n\x10\x11\n\x04\x0b\x17.\x02\x1a
xortool_out/159.out;\x16\x10\x06\x02\r\x0c\r\x1a\x0e\n\x19\x06\x11\x10\n\x10\x11\n\x04\x0b\x17\x14\x02\x1a
xortool_out/160.out;\x17\x11\x07\x03\x0c\r\x0c\x1b\x0f\x0b\x18\x07\x10\x11\x0b\x11\x10\x0b\x05\n\x16\x2f\x03\x1b
xortool_out/161.out;\x17\x11\x07\x03\x0c\r\x0c\x1b\x0f\x0b\x18\x07\x10\x11\x0b\x11\x10\x0b\x05\n\x16\x15\x03\x1b
xortool_out/162.out;\x14\x12\x04\x00\x0f\x0e\x0f\x18\x0c\x08\x1b\x04\x13\x12\x08\x12\x13\x08\x06\t\x15,\x00\x18
xortool_out/163.out;\x14\x12\x04\x00\x0f\x0e\x0f\x18\x0c\x08\x1b\x04\x13\x12\x08\x12\x13\x08\x06\t\x15\x16\x00\x18
xortool_out/164.out;\x15\x13\x05\x01\x0e\x0f\x0e\x19\r\t\x1a\x05\x12\x13\t\x13\x12\t\x07\x08\x14-\x01\x19
xortool_out/165.out;\x15\x13\x05\x01\x0e\x0f\x0e\x19\r\t\x1a\x05\x12\x13\t\x13\x12\t\x07\x08\x14\x17\x01\x19
xortool_out/166.out;jlz~qpqfrvezmlvlmvxwkR~f
xortool_out/167.out;jlz~qpqfrvezmlvlmvxwkh~f
xortool_out/168.out;qwaejkj}im~avwmwvmclpIe}
xortool_out/169.out;qwaejkj}im~avwmwvmclpse}
xortool_out/170.out;vpfbmlmznjyfqpjpqjdkwNbz
xortool_out/171.out;vpfbmlmznjyfqpjpqjdkwtbz
xortool_out/172.out;wqgclml{okxgpqkqpkejvOc{
xortool_out/173.out;wqgclml{okxgpqkqpkejvuc{
xortool_out/174.out;trd`onoxlh{dsrhrshfiuL`x
xortool_out/175.out;trd`onoxlh{dsrhrshfiuv`x
xortool_out/176.out;useanonymizersisrightMay
xortool_out/177.out;useanonymizersisrightway
xortool_out/178.out;JLZ^QPQFRVEZMLVLMVXWKr^F
xortool_out/179.out;JLZ^QPQFRVEZMLVLMVXWKH^F
xortool_out/180.out;QWAEJKJ]IM^AVWMWVMCLPiE]
xortool_out/181.out;QWAEJKJ]IM^AVWMWVMCLPSE]
xortool_out/182.out;VPFBMLMZNJYFQPJPQJDKWnBZ
xortool_out/183.out;VPFBMLMZNJYFQPJPQJDKWTBZ
xortool_out/184.out;WQGCLML[OKXGPQKQPKEJVoC[
xortool_out/185.out;WQGCLML[OKXGPQKQPKEJVUC[
xortool_out/186.out;TRD@ONOXLH[DSRHRSHFIUl@X
xortool_out/187.out;TRD@ONOXLH[DSRHRSHFIUV@X
xortool_out/188.out;\n\x0c\x1a\x1e\x11\x10\x11\x06\x12\x16\x05\x1a\r\x0c\x16\x0c\r\x16\x18\x17\x0b2\x1e\x06
xortool_out/189.out;\n\x0c\x1a\x1e\x11\x10\x11\x06\x12\x16\x05\x1a\r\x0c\x16\x0c\r\x16\x18\x17\x0b\x08\x1e\x06
xortool_out/190.out;#%37898\x2f;?,3$%?%$?1>"\x1b7\x2f
xortool_out/191.out;#%37898\x2f;?,3$%?%$?1>"!7\x2f
xortool_out/192.out; &04;:;,8<\x2f0'&<&'<2=!\x184,
xortool_out/193.out; &04;:;,8<\x2f0\'&<&\'<2=!"4,
xortool_out/194.out;'!73<=<+?;(7 !;! ;5:&\x1f3+
xortool_out/195.out;'!73<=<+?;(7 !;! ;5:&%3+
xortool_out/196.out;!'15:;:-9=.1&'='&=3< \x195-
xortool_out/197.out;!'15:;:-9=.1&'='&=3< #5-
xortool_out/198.out;& 62=<=*>:)6! : !:4;'\x1e2*
xortool_out/199.out;& 62=<=*>:)6! : !:4;'$2*
