file_name;char_used;perc_printable
xortool_out/000.out;48;39.0
xortool_out/001.out;48;36.0
xortool_out/002.out;49;39.0
xortool_out/003.out;49;36.0
xortool_out/004.out;50;31.0
xortool_out/005.out;50;29.0
xortool_out/006.out;51;39.0
xortool_out/007.out;51;37.0
xortool_out/008.out;52;30.0
xortool_out/009.out;52;27.0
xortool_out/010.out;53;32.0
xortool_out/011.out;53;29.0
xortool_out/012.out;54;37.0
xortool_out/013.out;54;34.0
xortool_out/014.out;55;43.0
xortool_out/015.out;55;40.0
xortool_out/016.out;56;33.0
xortool_out/017.out;56;31.0
xortool_out/018.out;57;33.0
xortool_out/019.out;57;30.0
xortool_out/020.out;97;100.0
xortool_out/021.out;97;100.0
xortool_out/022.out;98;100.0
xortool_out/023.out;98;100.0
xortool_out/024.out;99;100.0
xortool_out/025.out;99;100.0
xortool_out/026.out;100;100.0
xortool_out/027.out;100;100.0
xortool_out/028.out;101;100.0
xortool_out/029.out;101;100.0
xortool_out/030.out;102;100.0
xortool_out/031.out;102;100.0
xortool_out/032.out;103;100.0
xortool_out/033.out;103;100.0
xortool_out/034.out;104;100.0
xortool_out/035.out;104;100.0
xortool_out/036.out;105;100.0
xortool_out/037.out;105;100.0
xortool_out/038.out;106;100.0
xortool_out/039.out;106;100.0
xortool_out/040.out;107;100.0
xortool_out/041.out;107;100.0
xortool_out/042.out;108;100.0
xortool_out/043.out;108;100.0
xortool_out/044.out;109;100.0
xortool_out/045.out;109;100.0
xortool_out/046.out;110;100.0
xortool_out/047.out;110;100.0
xortool_out/048.out;111;100.0
xortool_out/049.out;111;100.0
xortool_out/050.out;112;100.0
xortool_out/051.out;112;100.0
xortool_out/052.out;113;100.0
xortool_out/053.out;113;100.0
xortool_out/054.out;114;100.0
xortool_out/055.out;114;100.0
xortool_out/056.out;115;100.0
xortool_out/057.out;115;100.0
xortool_out/058.out;116;100.0
xortool_out/059.out;116;100.0
xortool_out/060.out;117;100.0
xortool_out/061.out;117;100.0
xortool_out/062.out;118;100.0
xortool_out/063.out;118;100.0
xortool_out/064.out;119;100.0
xortool_out/065.out;119;100.0
xortool_out/066.out;120;100.0
xortool_out/067.out;120;100.0
xortool_out/068.out;121;100.0
xortool_out/069.out;121;100.0
xortool_out/070.out;122;100.0
xortool_out/071.out;122;100.0
xortool_out/072.out;65;94.0
xortool_out/073.out;65;94.0
xortool_out/074.out;66;99.0
xortool_out/075.out;66;99.0
xortool_out/076.out;67;97.0
xortool_out/077.out;67;97.0
xortool_out/078.out;68;98.0
xortool_out/079.out;68;98.0
xortool_out/080.out;69;90.0
xortool_out/081.out;69;90.0
xortool_out/082.out;70;98.0
xortool_out/083.out;70;98.0
xortool_out/084.out;71;99.0
xortool_out/085.out;71;99.0
xortool_out/086.out;72;98.0
xortool_out/087.out;72;97.0
xortool_out/088.out;73;94.0
xortool_out/089.out;73;94.0
xortool_out/090.out;74;100.0
xortool_out/091.out;74;100.0
xortool_out/092.out;75;100.0
xortool_out/093.out;75;100.0
xortool_out/094.out;76;97.0
xortool_out/095.out;76;97.0
xortool_out/096.out;77;98.0
xortool_out/097.out;77;98.0
xortool_out/098.out;78;93.0
xortool_out/099.out;78;92.0
xortool_out/100.out;79;93.0
xortool_out/101.out;79;93.0
xortool_out/102.out;80;98.0
xortool_out/103.out;80;98.0
xortool_out/104.out;81;100.0
xortool_out/105.out;81;100.0
xortool_out/106.out;82;94.0
xortool_out/107.out;82;94.0
xortool_out/108.out;83;95.0
xortool_out/109.out;83;95.0
xortool_out/110.out;84;93.0
xortool_out/111.out;84;93.0
xortool_out/112.out;85;98.0
xortool_out/113.out;85;98.0
xortool_out/114.out;86;99.0
xortool_out/115.out;86;99.0
xortool_out/116.out;87;99.0
xortool_out/117.out;87;99.0
xortool_out/118.out;88;100.0
xortool_out/119.out;88;100.0
xortool_out/120.out;89;98.0
xortool_out/121.out;89;98.0
xortool_out/122.out;90;99.0
xortool_out/123.out;90;99.0
xortool_out/124.out;33;41.0
xortool_out/125.out;33;39.0
xortool_out/126.out;34;31.0
xortool_out/127.out;34;29.0
xortool_out/128.out;35;26.0
xortool_out/129.out;35;23.0
xortool_out/130.out;36;30.0
xortool_out/131.out;36;27.0
xortool_out/132.out;37;29.0
xortool_out/133.out;37;26.0
xortool_out/134.out;38;42.0
xortool_out/135.out;38;40.0
xortool_out/136.out;39;40.0
xortool_out/137.out;39;37.0
xortool_out/138.out;40;21.0
xortool_out/139.out;40;18.0
xortool_out/140.out;41;21.0
xortool_out/141.out;41;18.0
xortool_out/142.out;42;23.0
xortool_out/143.out;42;20.0
xortool_out/144.out;43;23.0
xortool_out/145.out;43;20.0
xortool_out/146.out;44;23.0
xortool_out/147.out;44;20.0
xortool_out/148.out;45;23.0
xortool_out/149.out;45;20.0
xortool_out/150.out;46;21.0
xortool_out/151.out;46;18.0
xortool_out/152.out;47;23.0
xortool_out/153.out;47;20.0
xortool_out/154.out;58;46.0
xortool_out/155.out;58;44.0
xortool_out/156.out;59;45.0
xortool_out/157.out;59;43.0
xortool_out/158.out;60;43.0
xortool_out/159.out;60;41.0
xortool_out/160.out;61;44.0
xortool_out/161.out;61;42.0
xortool_out/162.out;62;28.0
xortool_out/163.out;62;25.0
xortool_out/164.out;63;32.0
xortool_out/165.out;63;29.0
xortool_out/166.out;64;100.0
xortool_out/167.out;64;100.0
xortool_out/168.out;91;100.0
xortool_out/169.out;91;100.0
xortool_out/170.out;92;100.0
xortool_out/171.out;92;100.0
xortool_out/172.out;93;100.0
xortool_out/173.out;93;100.0
xortool_out/174.out;94;100.0
xortool_out/175.out;94;100.0
xortool_out/176.out;95;100.0
xortool_out/177.out;95;100.0
xortool_out/178.out;96;100.0
xortool_out/179.out;96;100.0
xortool_out/180.out;123;100.0
xortool_out/181.out;123;100.0
xortool_out/182.out;124;100.0
xortool_out/183.out;124;100.0
xortool_out/184.out;125;100.0
xortool_out/185.out;125;100.0
xortool_out/186.out;126;100.0
xortool_out/187.out;126;100.0
xortool_out/188.out;32;41.0
xortool_out/189.out;32;38.0
xortool_out/190.out;9;97.0
xortool_out/191.out;9;100.0
xortool_out/192.out;10;97.0
xortool_out/193.out;10;100.0
xortool_out/194.out;13;97.0
xortool_out/195.out;13;100.0
xortool_out/196.out;11;97.0
xortool_out/197.out;11;100.0
xortool_out/198.out;12;97.0
xortool_out/199.out;12;100.0
